<?xml version="1.0" encoding="utf-8"?>
<!-- Generator: Adobe Illustrator 15.0.0, SVG Export Plug-In . SVG Version: 6.00 Build 0)  -->
<!DOCTYPE svg PUBLIC "-//W3C//DTD SVG 1.1//EN" "http://www.w3.org/Graphics/SVG/1.1/DTD/svg11.dtd">
<svg version="1.1" id="Layer_1" xmlns="http://www.w3.org/2000/svg" xmlns:xlink="http://www.w3.org/1999/xlink" x="0px" y="0px"
	 width="730.547px" height="305.199px" viewBox="0 0 730.547 305.199" enable-background="new 0 0 730.547 305.199"
	 xml:space="preserve">
<rect x="95.273" y="5.826" fill="none" stroke="#000000" stroke-width="10" stroke-miterlimit="10" width="540" height="180"/>
<rect x="111.273" y="20.826" fill="#003399" width="160" height="150"/>
<rect x="285.273" y="20.826" fill="#FFCC00" width="160" height="150"/>
<rect x="459.273" y="20.826" fill="#CC0000" width="160" height="150"/>
<g>
	<path fill="#000005" stroke="#FFFFFF" stroke-width="10" stroke-miterlimit="10" d="M237.235,49.878
		c-25.405-25.402-66.561-25.402-91.924,0c-25.362,25.401-25.405,66.553,0,91.913c25.404,25.36,66.562,25.403,91.924,0
		C262.598,116.388,262.641,75.279,237.235,49.878z M188.288,98.819c-1.651-1.652-1.651-4.319,0-5.97c1.651-1.65,4.318-1.65,5.971,0
		c1.651,1.651,1.651,4.318,0,5.97C192.606,100.47,189.939,100.47,188.288,98.819z"/>
	<g>
		<path fill="#1A1B20" d="M234.526,52.586c-23.882-23.877-62.666-23.877-86.548,0c-23.881,23.879-23.881,62.659,0,86.537
			c23.882,23.879,62.666,23.879,86.548,0C258.406,115.246,258.449,76.465,234.526,52.586z M174.696,112.451
			c-9.146-9.145-9.146-24.004,0-33.192c9.146-9.187,24.008-9.145,33.195,0c9.146,9.145,9.146,24.005,0,33.192
			C198.704,121.595,183.842,121.595,174.696,112.451z"/>
	</g>
	<path fill="#505150" d="M161.274,149.199l18.503-32.896c-1.82-1.016-3.557-2.328-5.081-3.853c-1.566-1.565-2.836-3.259-3.854-5.08
		l-32.941,18.459c2.667,4.742,6.055,9.229,10.077,13.293C152.001,143.188,156.532,146.532,161.274,149.199z"/>
	<path fill="#505150" d="M221.272,42.511L202.77,75.406c1.82,1.016,3.557,2.329,5.08,3.853c1.567,1.567,2.838,3.26,3.854,5.081
		l32.899-18.501c-2.668-4.743-6.055-9.23-10.076-13.294C230.503,48.48,226.015,45.178,221.272,42.511z"/>
	<g>
		<g>
			<g>
				<path fill="#000005" d="M149.503,137.6c-23.033-23.032-23.033-60.5,0-83.488c23.034-23.031,60.507-23.031,83.498,0
					c22.992,23.031,23.035,60.499,0,83.488C210.01,160.631,172.537,160.631,149.503,137.6z M232.747,54.365
					c-22.864-22.862-60.083-22.862-82.989,0c-22.865,22.861-22.865,60.076,0,82.98c22.864,22.904,60.083,22.861,82.989,0
					C255.654,114.483,255.654,77.227,232.747,54.365z"/>
			</g>
			<g>
				<path fill="#000005" d="M150.985,136.16c-22.229-22.227-22.229-58.383,0-80.567s58.39-22.227,80.576,0
					c22.188,22.227,22.229,58.383,0,80.567C209.332,158.344,173.215,158.344,150.985,136.16z M231.308,55.848
					c-22.06-22.059-57.966-22.059-80.068,0c-22.103,22.057-22.061,57.959,0,80.058c22.06,22.101,57.966,22.058,80.068,0
					C253.41,113.849,253.368,77.904,231.308,55.848z"/>
			</g>
			<g>
				<path fill="#000005" d="M152.425,134.678c-21.425-21.422-21.425-56.266,0-77.646c21.425-21.422,56.272-21.422,77.655,0
					c21.382,21.422,21.425,56.265,0,77.646C208.697,156.101,173.85,156.101,152.425,134.678z M229.826,57.286
					c-21.256-21.253-55.85-21.253-77.147,0c-21.256,21.253-21.256,55.842,0,77.138c21.256,21.296,55.85,21.253,77.147,0
					C251.081,113.171,251.081,78.539,229.826,57.286z"/>
			</g>
			<g>
				<path fill="#000005" d="M153.906,133.239c-20.619-20.618-20.619-54.149,0-74.725c20.621-20.618,54.156-20.618,74.733,0
					c20.579,20.618,20.62,54.148,0,74.725C208.02,153.814,174.527,153.814,153.906,133.239z M228.386,58.769
					c-20.45-20.449-53.731-20.449-74.225,0c-20.452,20.448-20.452,53.725,0,74.215c20.45,20.449,53.73,20.449,74.225,0
					C248.838,112.494,248.838,79.217,228.386,58.769z"/>
			</g>
			<g>
				<path fill="#000005" d="M155.346,131.756c-19.815-19.813-19.815-52.032,0-71.803c19.816-19.771,52.039-19.813,71.813,0
					s19.816,52.031,0,71.803C207.342,151.529,175.162,151.571,155.346,131.756z M226.904,60.208
					c-19.647-19.645-51.615-19.645-71.261,0c-19.647,19.644-19.647,51.608,0,71.252c19.646,19.645,51.613,19.645,71.261,0
					C246.551,111.816,246.551,79.852,226.904,60.208z"/>
			</g>
			<g>
				<path fill="#000005" d="M156.828,130.317c-19.011-19.009-19.011-49.916,0-68.882c19.012-19.009,49.921-19.009,68.89,0
					c18.97,19.01,19.013,49.915,0,68.882C206.707,149.284,175.84,149.284,156.828,130.317z M225.464,61.689
					c-18.842-18.839-49.497-18.839-68.339,0c-18.843,18.84-18.843,49.492,0,68.332c18.842,18.839,49.497,18.839,68.339,0
					C244.307,111.181,244.307,80.53,225.464,61.689z"/>
			</g>
			<g>
				<path fill="#000005" d="M158.268,128.836c-18.207-18.205-18.207-47.798,0-65.961s47.805-18.205,65.969,0
					c18.165,18.205,18.208,47.798,0,65.961C206.029,146.998,176.475,147.04,158.268,128.836z M223.982,63.129
					c-18.038-18.036-47.381-18.036-65.418,0c-18.038,18.036-18.038,47.374,0,65.411c18.037,18.035,47.38,18.035,65.418,0
					C242.021,110.546,242.021,81.165,223.982,63.129z"/>
			</g>
			<g>
				<path fill="#000005" d="M159.75,127.354c-17.402-17.399-17.402-45.639,0-63.039c17.402-17.4,45.645-17.4,63.047,0
					c17.402,17.4,17.402,45.64,0,63.039C205.395,144.754,177.11,144.754,159.75,127.354z M222.543,64.611
					c-17.233-17.231-45.264-17.231-62.496,0c-17.233,17.231-17.233,45.258,0,62.49c17.232,17.23,45.263,17.23,62.496,0
					C239.776,109.869,239.776,81.842,222.543,64.611z"/>
			</g>
			<g>
				<path fill="#000005" d="M161.189,125.915c-16.556-16.554-16.556-43.522,0-60.119c16.557-16.596,43.527-16.553,60.126,0
					c16.598,16.554,16.556,43.522,0,60.119C204.76,142.51,177.787,142.468,161.189,125.915z M221.062,66.05
					c-16.43-16.426-43.147-16.426-59.575,0c-16.429,16.426-16.429,43.141,0,59.568c16.428,16.426,43.146,16.426,59.575,0
					C237.489,109.233,237.489,82.477,221.062,66.05z"/>
			</g>
			<g>
				<path fill="#000005" d="M162.671,124.432c-15.751-15.749-15.751-41.405,0-57.197c15.751-15.791,41.411-15.749,57.204,0
					c15.794,15.75,15.752,41.406,0,57.197C204.124,140.224,178.422,140.224,162.671,124.432z M219.621,67.532
					c-15.624-15.622-41.029-15.622-56.652,0c-15.625,15.623-15.625,41.024,0,56.647c15.623,15.621,41.028,15.621,56.652,0
					C235.203,108.556,235.203,83.155,219.621,67.532z"/>
			</g>
			<g>
				<path fill="#000005" d="M164.153,122.993c-14.946-14.944-14.946-39.289,0-54.276c14.947-14.944,39.293-14.944,54.282,0
					c14.989,14.946,14.946,39.289,0,54.276C203.446,137.938,179.101,137.938,164.153,122.993z M218.14,68.972
					c-14.819-14.818-38.912-14.818-53.731,0c-14.82,14.818-14.82,38.907,0,53.726c14.819,14.817,38.912,14.817,53.731,0
					C232.959,107.879,232.959,83.79,218.14,68.972z"/>
			</g>
			<g>
				<path fill="#000005" d="M165.593,121.512c-14.142-14.141-14.142-37.172,0-51.355c14.143-14.14,37.177-14.14,51.36,0
					c14.143,14.141,14.143,37.172,0,51.355C202.77,135.694,179.735,135.694,165.593,121.512z M216.657,70.453
					c-14.015-14.014-36.795-14.014-50.81,0c-14.016,14.014-14.016,36.791,0,50.805c14.015,14.013,36.795,14.013,50.81,0
					C230.673,107.244,230.673,84.467,216.657,70.453z"/>
			</g>
			<g>
				<path fill="#000005" d="M167.075,120.072c-13.338-13.336-13.338-35.055,0-48.434c13.338-13.378,35.059-13.335,48.439,0
					c13.38,13.337,13.337,35.055,0,48.434C202.177,133.45,180.413,133.408,167.075,120.072z M215.218,71.893
					c-13.21-13.209-34.678-13.209-47.889,0c-13.211,13.209-13.211,34.674,0,47.883c13.211,13.208,34.679,13.208,47.889,0
					C228.429,106.566,228.429,85.102,215.218,71.893z"/>
			</g>
			<g>
				<path fill="#000005" d="M168.515,118.59c-12.533-12.532-12.533-32.938,0-45.512c12.533-12.532,32.942-12.532,45.517,0
					c12.533,12.531,12.533,32.938,0,45.512C201.499,131.164,181.048,131.164,168.515,118.59z M213.735,73.375
					c-12.405-12.405-32.561-12.405-44.967,0c-12.406,12.404-12.406,32.557,0,44.962c12.406,12.404,32.562,12.404,44.967,0
					C226.142,105.931,226.142,85.778,213.735,73.375z"/>
			</g>
			<g>
				<path fill="#000005" d="M169.996,117.15c-11.729-11.727-11.729-30.821,0-42.591s30.825-11.727,42.597,0
					c11.771,11.728,11.729,30.821,0,42.591C200.821,128.878,181.725,128.878,169.996,117.15z M212.296,74.856
					c-11.601-11.601-30.443-11.601-42.045,0c-11.602,11.6-11.602,30.44,0,42.04c11.602,11.601,30.444,11.601,42.045,0
					C223.898,105.296,223.898,86.414,212.296,74.856z"/>
			</g>
			<g>
				<path fill="#000005" d="M171.437,115.669c-10.925-10.923-10.925-28.705,0-39.67c10.924-10.965,28.707-10.922,39.674,0
					c10.967,10.923,10.924,28.705,0,39.67C200.187,126.635,182.36,126.592,171.437,115.669z M210.813,76.296
					c-10.797-10.797-28.326-10.797-39.123,0c-10.797,10.794-10.797,28.322,0,39.119c10.797,10.796,28.326,10.796,39.123,0
					C221.611,104.619,221.611,87.091,210.813,76.296z"/>
			</g>
			<g>
				<path fill="#000005" d="M172.918,114.229c-10.12-10.119-10.12-26.587,0-36.706c10.12-10.118,26.591-10.118,36.711,0
					c10.12,10.119,10.12,26.587,0,36.706C199.509,124.348,183.038,124.348,172.918,114.229z M209.375,77.777
					c-9.993-9.991-26.21-9.991-36.202,0c-9.993,9.992-9.993,26.207,0,36.198c9.992,9.991,26.209,9.991,36.202,0
					C219.368,103.984,219.368,87.727,209.375,77.777z"/>
			</g>
			<g>
				<path fill="#000005" d="M174.357,112.748c-9.314-9.314-9.314-24.47,0-33.785c9.315-9.314,24.474-9.314,33.79,0
					c9.314,9.314,9.314,24.471,0,33.785C198.874,122.062,183.673,122.062,174.357,112.748z M207.892,79.217
					c-9.188-9.188-24.092-9.188-33.28,0c-9.188,9.187-9.188,24.089,0,33.277c9.188,9.187,24.093,9.187,33.28,0
					C217.081,103.306,217.081,88.403,207.892,79.217z"/>
			</g>
			<g>
				<path fill="#000005" d="M175.84,111.308c-8.511-8.51-8.511-22.354,0-30.863c8.511-8.51,22.356-8.51,30.867,0
					c8.511,8.509,8.511,22.353,0,30.863C198.196,119.818,184.351,119.818,175.84,111.308z M206.453,80.699
					c-8.384-8.383-21.976-8.383-30.359,0c-8.384,8.382-8.384,21.972,0,30.355c8.384,8.383,21.976,8.383,30.359,0
					C214.837,102.671,214.794,89.04,206.453,80.699z"/>
			</g>
		</g>
	</g>
	<path fill="#000005" d="M212.466,74.645c-11.687-11.685-30.698-11.685-42.385,0c-11.687,11.685-11.687,30.694,0,42.38
		c11.687,11.685,30.698,11.685,42.385,0C224.152,105.339,224.152,86.372,212.466,74.645z M188.584,98.522
		c-1.481-1.481-1.481-3.852,0-5.334c1.482-1.481,3.854-1.481,5.336,0c1.482,1.482,1.482,3.853,0,5.334
		C192.48,100.004,190.066,100.004,188.584,98.522z"/>
	<path fill="#F26522" d="M205.648,81.46c-7.96-7.959-20.832-7.959-28.793,0c-7.96,7.96-7.96,20.83,0,28.789
		c7.961,7.96,20.833,7.96,28.793,0C213.608,102.29,213.608,89.42,205.648,81.46z M188.712,98.395c-1.397-1.397-1.397-3.683,0-5.122
		c1.397-1.397,3.685-1.397,5.123,0c1.397,1.397,1.397,3.683,0,5.122C192.396,99.835,190.109,99.835,188.712,98.395z"/>
</g>
<g>
	<path fill="#000005" stroke="#FFFFFF" stroke-width="10" stroke-miterlimit="10" d="M411.235,49.878
		c-25.405-25.402-66.561-25.402-91.924,0c-25.362,25.401-25.405,66.553,0,91.913c25.404,25.359,66.562,25.402,91.924,0
		S436.641,75.279,411.235,49.878z M362.288,98.819c-1.651-1.651-1.651-4.319,0-5.97c1.651-1.65,4.318-1.65,5.971,0
		c1.651,1.651,1.651,4.319,0,5.97C366.606,100.47,363.939,100.47,362.288,98.819z"/>
	<g>
		<path fill="#1A1B20" d="M408.526,52.586c-23.882-23.877-62.666-23.877-86.548,0c-23.881,23.879-23.881,62.66,0,86.537
			c23.882,23.879,62.666,23.879,86.548,0C432.406,115.246,432.449,76.465,408.526,52.586z M348.696,112.451
			c-9.146-9.146-9.146-24.005,0-33.192c9.146-9.187,24.008-9.145,33.195,0c9.146,9.145,9.146,24.005,0,33.192
			C372.704,121.596,357.842,121.596,348.696,112.451z"/>
	</g>
	<path fill="#505150" d="M335.274,149.199l18.503-32.896c-1.82-1.017-3.557-2.328-5.081-3.853c-1.566-1.566-2.836-3.26-3.854-5.08
		l-32.941,18.459c2.667,4.741,6.055,9.229,10.077,13.293C326.001,143.188,330.532,146.532,335.274,149.199z"/>
	<path fill="#505150" d="M395.272,42.511L376.77,75.406c1.82,1.016,3.557,2.329,5.08,3.853c1.567,1.567,2.838,3.26,3.854,5.081
		l32.899-18.501c-2.668-4.743-6.055-9.23-10.076-13.294C404.503,48.48,400.015,45.178,395.272,42.511z"/>
	<g>
		<g>
			<g>
				<path fill="#000005" d="M323.503,137.6c-23.033-23.031-23.033-60.5,0-83.488c23.034-23.031,60.507-23.031,83.498,0
					c22.992,23.031,23.035,60.498,0,83.488C384.01,160.631,346.537,160.631,323.503,137.6z M406.747,54.365
					c-22.864-22.862-60.083-22.862-82.989,0c-22.865,22.861-22.865,60.076,0,82.98c22.864,22.904,60.083,22.861,82.989,0
					C429.654,114.483,429.654,77.227,406.747,54.365z"/>
			</g>
			<g>
				<path fill="#000005" d="M324.985,136.16c-22.229-22.227-22.229-58.383,0-80.567s58.39-22.227,80.576,0
					c22.188,22.227,22.229,58.383,0,80.567C383.332,158.344,347.215,158.344,324.985,136.16z M405.308,55.848
					c-22.06-22.059-57.966-22.059-80.068,0c-22.103,22.057-22.061,57.959,0,80.058c22.06,22.101,57.966,22.058,80.068,0
					C427.41,113.849,427.368,77.904,405.308,55.848z"/>
			</g>
			<g>
				<path fill="#000005" d="M326.425,134.678c-21.425-21.422-21.425-56.266,0-77.646c21.425-21.422,56.272-21.422,77.655,0
					c21.382,21.422,21.425,56.265,0,77.646C382.697,156.101,347.85,156.101,326.425,134.678z M403.826,57.286
					c-21.256-21.253-55.85-21.253-77.147,0c-21.256,21.253-21.256,55.843,0,77.138c21.256,21.297,55.85,21.254,77.147,0
					C425.081,113.171,425.081,78.539,403.826,57.286z"/>
			</g>
			<g>
				<path fill="#000005" d="M327.906,133.238c-20.619-20.617-20.619-54.148,0-74.724c20.621-20.618,54.156-20.618,74.733,0
					c20.579,20.618,20.62,54.148,0,74.724S348.527,153.814,327.906,133.238z M402.386,58.769c-20.45-20.449-53.731-20.449-74.225,0
					c-20.452,20.448-20.452,53.726,0,74.216c20.45,20.449,53.73,20.449,74.225,0C422.838,112.494,422.838,79.217,402.386,58.769z"/>
			</g>
			<g>
				<path fill="#000005" d="M329.346,131.756c-19.815-19.813-19.815-52.031,0-71.802c19.816-19.771,52.039-19.813,71.813,0
					s19.816,52.031,0,71.802C381.342,151.529,349.162,151.57,329.346,131.756z M400.904,60.208
					c-19.647-19.645-51.615-19.645-71.261,0c-19.647,19.644-19.647,51.608,0,71.253c19.646,19.645,51.613,19.645,71.261,0
					C420.551,111.816,420.551,79.852,400.904,60.208z"/>
			</g>
			<g>
				<path fill="#000005" d="M330.828,130.317c-19.011-19.009-19.011-49.916,0-68.882c19.012-19.009,49.921-19.009,68.89,0
					c18.97,19.01,19.013,49.914,0,68.882C380.707,149.284,349.84,149.284,330.828,130.317z M399.464,61.689
					c-18.842-18.839-49.497-18.839-68.339,0c-18.843,18.84-18.843,49.492,0,68.332c18.842,18.84,49.497,18.84,68.339,0
					C418.307,111.182,418.307,80.53,399.464,61.689z"/>
			</g>
			<g>
				<path fill="#000005" d="M332.268,128.836c-18.207-18.205-18.207-47.798,0-65.961s47.805-18.205,65.969,0
					c18.165,18.205,18.208,47.799,0,65.961C380.029,146.998,350.475,147.04,332.268,128.836z M397.982,63.129
					c-18.038-18.036-47.381-18.036-65.418,0c-18.038,18.036-18.038,47.374,0,65.41c18.037,18.035,47.38,18.035,65.418,0
					C416.021,110.546,416.021,81.165,397.982,63.129z"/>
			</g>
			<g>
				<path fill="#000005" d="M333.75,127.354c-17.402-17.399-17.402-45.639,0-63.039c17.402-17.4,45.645-17.4,63.047,0
					c17.402,17.4,17.402,45.64,0,63.039C379.395,144.754,351.11,144.754,333.75,127.354z M396.543,64.611
					c-17.233-17.231-45.264-17.231-62.496,0c-17.233,17.231-17.233,45.258,0,62.49c17.232,17.23,45.263,17.23,62.496,0
					C413.776,109.869,413.776,81.842,396.543,64.611z"/>
			</g>
			<g>
				<path fill="#000005" d="M335.189,125.914c-16.556-16.553-16.556-43.522,0-60.118c16.557-16.596,43.527-16.553,60.126,0
					c16.598,16.554,16.556,43.522,0,60.118S351.787,142.468,335.189,125.914z M395.062,66.05c-16.43-16.426-43.147-16.426-59.575,0
					c-16.429,16.426-16.429,43.141,0,59.568c16.428,16.427,43.146,16.427,59.575,0C411.489,109.233,411.489,82.477,395.062,66.05z"
					/>
			</g>
			<g>
				<path fill="#000005" d="M336.671,124.432c-15.751-15.748-15.751-41.405,0-57.196c15.751-15.791,41.411-15.749,57.204,0
					c15.794,15.75,15.752,41.405,0,57.196C378.124,140.225,352.422,140.225,336.671,124.432z M393.621,67.532
					c-15.624-15.622-41.029-15.622-56.652,0c-15.625,15.623-15.625,41.024,0,56.647c15.623,15.621,41.028,15.621,56.652,0
					C409.203,108.557,409.203,83.155,393.621,67.532z"/>
			</g>
			<g>
				<path fill="#000005" d="M338.153,122.992c-14.946-14.943-14.946-39.288,0-54.275c14.947-14.944,39.293-14.944,54.282,0
					c14.989,14.946,14.946,39.289,0,54.275C377.446,137.938,353.101,137.938,338.153,122.992z M392.14,68.972
					c-14.819-14.818-38.912-14.818-53.731,0c-14.82,14.818-14.82,38.907,0,53.726c14.819,14.817,38.912,14.817,53.731,0
					C406.959,107.879,406.959,83.79,392.14,68.972z"/>
			</g>
			<g>
				<path fill="#000005" d="M339.593,121.512c-14.142-14.141-14.142-37.172,0-51.355c14.143-14.14,37.177-14.14,51.36,0
					c14.143,14.141,14.143,37.171,0,51.355C376.77,135.694,353.735,135.694,339.593,121.512z M390.657,70.453
					c-14.015-14.014-36.795-14.014-50.81,0c-14.016,14.014-14.016,36.791,0,50.805c14.015,14.013,36.795,14.013,50.81,0
					C404.673,107.244,404.673,84.467,390.657,70.453z"/>
			</g>
			<g>
				<path fill="#000005" d="M341.075,120.072c-13.338-13.336-13.338-35.055,0-48.434c13.338-13.378,35.059-13.335,48.439,0
					c13.38,13.337,13.337,35.055,0,48.434C376.177,133.45,354.413,133.408,341.075,120.072z M389.218,71.893
					c-13.21-13.209-34.678-13.209-47.889,0c-13.211,13.209-13.211,34.674,0,47.883s34.679,13.209,47.889,0
					C402.429,106.566,402.429,85.102,389.218,71.893z"/>
			</g>
			<g>
				<path fill="#000005" d="M342.515,118.59c-12.533-12.531-12.533-32.938,0-45.512c12.533-12.532,32.942-12.532,45.517,0
					c12.533,12.531,12.533,32.938,0,45.512C375.499,131.164,355.048,131.164,342.515,118.59z M387.735,73.375
					c-12.405-12.405-32.561-12.405-44.967,0c-12.406,12.404-12.406,32.557,0,44.962c12.406,12.403,32.562,12.403,44.967,0
					C400.142,105.932,400.142,85.778,387.735,73.375z"/>
			</g>
			<g>
				<path fill="#000005" d="M343.996,117.15c-11.729-11.727-11.729-30.821,0-42.591s30.825-11.727,42.597,0
					c11.771,11.728,11.729,30.821,0,42.591C374.821,128.878,355.725,128.878,343.996,117.15z M386.296,74.856
					c-11.601-11.601-30.443-11.601-42.045,0c-11.602,11.6-11.602,30.44,0,42.04c11.602,11.601,30.444,11.601,42.045,0
					C397.898,105.297,397.898,86.414,386.296,74.856z"/>
			</g>
			<g>
				<path fill="#000005" d="M345.437,115.669c-10.925-10.923-10.925-28.705,0-39.67c10.924-10.965,28.707-10.922,39.674,0
					c10.967,10.923,10.924,28.704,0,39.67S356.36,126.592,345.437,115.669z M384.813,76.296c-10.797-10.797-28.326-10.797-39.123,0
					c-10.797,10.794-10.797,28.323,0,39.119s28.326,10.796,39.123,0C395.611,104.619,395.611,87.091,384.813,76.296z"/>
			</g>
			<g>
				<path fill="#000005" d="M346.918,114.229c-10.12-10.118-10.12-26.587,0-36.706c10.12-10.118,26.591-10.118,36.711,0
					c10.12,10.119,10.12,26.588,0,36.706S357.038,124.348,346.918,114.229z M383.375,77.777c-9.993-9.991-26.21-9.991-36.202,0
					c-9.993,9.992-9.993,26.207,0,36.198c9.992,9.991,26.209,9.991,36.202,0S393.368,87.727,383.375,77.777z"/>
			</g>
			<g>
				<path fill="#000005" d="M348.357,112.748c-9.314-9.314-9.314-24.471,0-33.785c9.315-9.314,24.474-9.314,33.79,0
					c9.314,9.314,9.314,24.471,0,33.785C372.874,122.062,357.673,122.062,348.357,112.748z M381.892,79.217
					c-9.188-9.188-24.092-9.188-33.28,0c-9.188,9.187-9.188,24.089,0,33.277c9.188,9.187,24.093,9.187,33.28,0
					C391.081,103.306,391.081,88.403,381.892,79.217z"/>
			</g>
			<g>
				<path fill="#000005" d="M349.84,111.309c-8.511-8.511-8.511-22.354,0-30.863c8.511-8.51,22.356-8.51,30.867,0
					c8.511,8.509,8.511,22.353,0,30.863C372.196,119.818,358.351,119.818,349.84,111.309z M380.453,80.699
					c-8.384-8.383-21.976-8.383-30.359,0c-8.384,8.382-8.384,21.972,0,30.355c8.384,8.383,21.976,8.383,30.359,0
					C388.837,102.671,388.794,89.04,380.453,80.699z"/>
			</g>
		</g>
	</g>
	<path fill="#000005" d="M386.466,74.645c-11.687-11.685-30.698-11.685-42.385,0c-11.687,11.685-11.687,30.694,0,42.38
		c11.687,11.685,30.698,11.685,42.385,0C398.152,105.339,398.152,86.372,386.466,74.645z M362.584,98.521
		c-1.481-1.48-1.481-3.851,0-5.333c1.482-1.481,3.854-1.481,5.336,0c1.482,1.482,1.482,3.853,0,5.333
		C366.48,100.004,364.066,100.004,362.584,98.521z"/>
	<path fill="#F26522" d="M379.648,81.46c-7.96-7.959-20.832-7.959-28.793,0c-7.96,7.96-7.96,20.83,0,28.789
		c7.961,7.96,20.833,7.96,28.793,0C387.608,102.29,387.608,89.42,379.648,81.46z M362.712,98.395c-1.397-1.396-1.397-3.683,0-5.122
		c1.397-1.397,3.685-1.397,5.123,0c1.397,1.397,1.397,3.683,0,5.122C366.396,99.835,364.109,99.835,362.712,98.395z"/>
</g>
<g>
	<path fill="#000005" stroke="#FFFFFF" stroke-width="10" stroke-miterlimit="10" d="M585.235,49.878
		c-25.405-25.402-66.561-25.402-91.924,0c-25.362,25.401-25.405,66.553,0,91.913c25.404,25.359,66.562,25.402,91.924,0
		S610.641,75.279,585.235,49.878z M536.288,98.819c-1.651-1.651-1.651-4.319,0-5.97c1.651-1.65,4.318-1.65,5.971,0
		c1.651,1.651,1.651,4.319,0,5.97C540.606,100.47,537.939,100.47,536.288,98.819z"/>
	<g>
		<path fill="#1A1B20" d="M582.526,52.586c-23.882-23.877-62.666-23.877-86.548,0c-23.881,23.879-23.881,62.66,0,86.537
			c23.882,23.879,62.666,23.879,86.548,0C606.406,115.246,606.449,76.465,582.526,52.586z M522.696,112.451
			c-9.146-9.146-9.146-24.005,0-33.192c9.146-9.187,24.008-9.145,33.195,0c9.146,9.145,9.146,24.005,0,33.192
			C546.704,121.596,531.842,121.596,522.696,112.451z"/>
	</g>
	<path fill="#505150" d="M509.274,149.199l18.503-32.896c-1.82-1.017-3.557-2.328-5.081-3.853c-1.566-1.566-2.836-3.26-3.854-5.08
		l-32.941,18.459c2.667,4.741,6.055,9.229,10.077,13.293C500.001,143.188,504.532,146.532,509.274,149.199z"/>
	<path fill="#505150" d="M569.272,42.511L550.77,75.406c1.82,1.016,3.557,2.329,5.08,3.853c1.567,1.567,2.838,3.26,3.854,5.081
		l32.899-18.501c-2.668-4.743-6.055-9.23-10.076-13.294C578.503,48.48,574.015,45.178,569.272,42.511z"/>
	<g>
		<g>
			<g>
				<path fill="#000005" d="M497.503,137.6c-23.033-23.031-23.033-60.5,0-83.488c23.034-23.031,60.507-23.031,83.498,0
					c22.992,23.031,23.035,60.498,0,83.488C558.01,160.631,520.537,160.631,497.503,137.6z M580.747,54.365
					c-22.864-22.862-60.083-22.862-82.989,0c-22.865,22.861-22.865,60.076,0,82.98c22.864,22.904,60.083,22.861,82.989,0
					C603.654,114.483,603.654,77.227,580.747,54.365z"/>
			</g>
			<g>
				<path fill="#000005" d="M498.985,136.16c-22.229-22.227-22.229-58.383,0-80.567s58.39-22.227,80.576,0
					c22.188,22.227,22.229,58.383,0,80.567C557.332,158.344,521.215,158.344,498.985,136.16z M579.308,55.848
					c-22.06-22.059-57.966-22.059-80.068,0c-22.103,22.057-22.061,57.959,0,80.058c22.06,22.101,57.966,22.058,80.068,0
					C601.41,113.849,601.368,77.904,579.308,55.848z"/>
			</g>
			<g>
				<path fill="#000005" d="M500.425,134.678c-21.425-21.422-21.425-56.266,0-77.646c21.425-21.422,56.272-21.422,77.655,0
					c21.382,21.422,21.425,56.265,0,77.646C556.697,156.101,521.85,156.101,500.425,134.678z M577.826,57.286
					c-21.256-21.253-55.85-21.253-77.147,0c-21.256,21.253-21.256,55.843,0,77.138c21.256,21.297,55.85,21.254,77.147,0
					C599.081,113.171,599.081,78.539,577.826,57.286z"/>
			</g>
			<g>
				<path fill="#000005" d="M501.906,133.238c-20.619-20.617-20.619-54.148,0-74.724c20.621-20.618,54.156-20.618,74.733,0
					c20.579,20.618,20.62,54.148,0,74.724S522.527,153.814,501.906,133.238z M576.386,58.769c-20.45-20.449-53.731-20.449-74.225,0
					c-20.452,20.448-20.452,53.726,0,74.216c20.45,20.449,53.73,20.449,74.225,0C596.838,112.494,596.838,79.217,576.386,58.769z"/>
			</g>
			<g>
				<path fill="#000005" d="M503.346,131.756c-19.815-19.813-19.815-52.031,0-71.802c19.816-19.771,52.039-19.813,71.813,0
					s19.816,52.031,0,71.802C555.342,151.529,523.162,151.57,503.346,131.756z M574.904,60.208
					c-19.647-19.645-51.615-19.645-71.261,0c-19.647,19.644-19.647,51.608,0,71.253c19.646,19.645,51.613,19.645,71.261,0
					C594.551,111.816,594.551,79.852,574.904,60.208z"/>
			</g>
			<g>
				<path fill="#000005" d="M504.828,130.317c-19.011-19.009-19.011-49.916,0-68.882c19.012-19.009,49.921-19.009,68.89,0
					c18.97,19.01,19.013,49.914,0,68.882C554.707,149.284,523.84,149.284,504.828,130.317z M573.464,61.689
					c-18.842-18.839-49.497-18.839-68.339,0c-18.843,18.84-18.843,49.492,0,68.332c18.842,18.84,49.497,18.84,68.339,0
					C592.307,111.182,592.307,80.53,573.464,61.689z"/>
			</g>
			<g>
				<path fill="#000005" d="M506.268,128.836c-18.207-18.205-18.207-47.798,0-65.961s47.805-18.205,65.969,0
					c18.165,18.205,18.208,47.799,0,65.961C554.029,146.998,524.475,147.04,506.268,128.836z M571.982,63.129
					c-18.038-18.036-47.381-18.036-65.418,0c-18.038,18.036-18.038,47.374,0,65.41c18.037,18.035,47.38,18.035,65.418,0
					C590.021,110.546,590.021,81.165,571.982,63.129z"/>
			</g>
			<g>
				<path fill="#000005" d="M507.75,127.354c-17.402-17.399-17.402-45.639,0-63.039c17.402-17.4,45.645-17.4,63.047,0
					c17.402,17.4,17.402,45.64,0,63.039C553.395,144.754,525.11,144.754,507.75,127.354z M570.543,64.611
					c-17.233-17.231-45.264-17.231-62.496,0c-17.233,17.231-17.233,45.258,0,62.49c17.232,17.23,45.263,17.23,62.496,0
					C587.776,109.869,587.776,81.842,570.543,64.611z"/>
			</g>
			<g>
				<path fill="#000005" d="M509.189,125.914c-16.556-16.553-16.556-43.522,0-60.118c16.557-16.596,43.527-16.553,60.126,0
					c16.598,16.554,16.556,43.522,0,60.118S525.787,142.468,509.189,125.914z M569.062,66.05c-16.43-16.426-43.147-16.426-59.575,0
					c-16.429,16.426-16.429,43.141,0,59.568c16.428,16.427,43.146,16.427,59.575,0C585.489,109.233,585.489,82.477,569.062,66.05z"
					/>
			</g>
			<g>
				<path fill="#000005" d="M510.671,124.432c-15.751-15.748-15.751-41.405,0-57.196c15.751-15.791,41.411-15.749,57.204,0
					c15.794,15.75,15.752,41.405,0,57.196C552.124,140.225,526.422,140.225,510.671,124.432z M567.621,67.532
					c-15.624-15.622-41.029-15.622-56.652,0c-15.625,15.623-15.625,41.024,0,56.647c15.623,15.621,41.028,15.621,56.652,0
					C583.203,108.557,583.203,83.155,567.621,67.532z"/>
			</g>
			<g>
				<path fill="#000005" d="M512.153,122.992c-14.946-14.943-14.946-39.288,0-54.275c14.947-14.944,39.293-14.944,54.282,0
					c14.989,14.946,14.946,39.289,0,54.275C551.446,137.938,527.101,137.938,512.153,122.992z M566.14,68.972
					c-14.819-14.818-38.912-14.818-53.731,0c-14.82,14.818-14.82,38.907,0,53.726c14.819,14.817,38.912,14.817,53.731,0
					C580.959,107.879,580.959,83.79,566.14,68.972z"/>
			</g>
			<g>
				<path fill="#000005" d="M513.593,121.512c-14.142-14.141-14.142-37.172,0-51.355c14.143-14.14,37.177-14.14,51.36,0
					c14.143,14.141,14.143,37.171,0,51.355C550.77,135.694,527.735,135.694,513.593,121.512z M564.657,70.453
					c-14.015-14.014-36.795-14.014-50.81,0c-14.016,14.014-14.016,36.791,0,50.805c14.015,14.013,36.795,14.013,50.81,0
					C578.673,107.244,578.673,84.467,564.657,70.453z"/>
			</g>
			<g>
				<path fill="#000005" d="M515.075,120.072c-13.338-13.336-13.338-35.055,0-48.434c13.338-13.378,35.059-13.335,48.439,0
					c13.38,13.337,13.337,35.055,0,48.434C550.177,133.45,528.413,133.408,515.075,120.072z M563.218,71.893
					c-13.21-13.209-34.678-13.209-47.889,0c-13.211,13.209-13.211,34.674,0,47.883s34.679,13.209,47.889,0
					C576.429,106.566,576.429,85.102,563.218,71.893z"/>
			</g>
			<g>
				<path fill="#000005" d="M516.515,118.59c-12.533-12.531-12.533-32.938,0-45.512c12.533-12.532,32.942-12.532,45.517,0
					c12.533,12.531,12.533,32.938,0,45.512C549.499,131.164,529.048,131.164,516.515,118.59z M561.735,73.375
					c-12.405-12.405-32.561-12.405-44.967,0c-12.406,12.404-12.406,32.557,0,44.962c12.406,12.403,32.562,12.403,44.967,0
					C574.142,105.932,574.142,85.778,561.735,73.375z"/>
			</g>
			<g>
				<path fill="#000005" d="M517.996,117.15c-11.729-11.727-11.729-30.821,0-42.591s30.825-11.727,42.597,0
					c11.771,11.728,11.729,30.821,0,42.591C548.821,128.878,529.725,128.878,517.996,117.15z M560.296,74.856
					c-11.601-11.601-30.443-11.601-42.045,0c-11.602,11.6-11.602,30.44,0,42.04c11.602,11.601,30.444,11.601,42.045,0
					C571.898,105.297,571.898,86.414,560.296,74.856z"/>
			</g>
			<g>
				<path fill="#000005" d="M519.437,115.669c-10.925-10.923-10.925-28.705,0-39.67c10.924-10.965,28.707-10.922,39.674,0
					c10.967,10.923,10.924,28.704,0,39.67S530.36,126.592,519.437,115.669z M558.813,76.296c-10.797-10.797-28.326-10.797-39.123,0
					c-10.797,10.794-10.797,28.323,0,39.119s28.326,10.796,39.123,0C569.611,104.619,569.611,87.091,558.813,76.296z"/>
			</g>
			<g>
				<path fill="#000005" d="M520.918,114.229c-10.12-10.118-10.12-26.587,0-36.706c10.12-10.118,26.591-10.118,36.711,0
					c10.12,10.119,10.12,26.588,0,36.706S531.038,124.348,520.918,114.229z M557.375,77.777c-9.993-9.991-26.21-9.991-36.202,0
					c-9.993,9.992-9.993,26.207,0,36.198c9.992,9.991,26.209,9.991,36.202,0S567.368,87.727,557.375,77.777z"/>
			</g>
			<g>
				<path fill="#000005" d="M522.357,112.748c-9.314-9.314-9.314-24.471,0-33.785c9.315-9.314,24.474-9.314,33.79,0
					c9.314,9.314,9.314,24.471,0,33.785C546.874,122.062,531.673,122.062,522.357,112.748z M555.892,79.217
					c-9.188-9.188-24.092-9.188-33.28,0c-9.188,9.187-9.188,24.089,0,33.277c9.188,9.187,24.093,9.187,33.28,0
					C565.081,103.306,565.081,88.403,555.892,79.217z"/>
			</g>
			<g>
				<path fill="#000005" d="M523.84,111.309c-8.511-8.511-8.511-22.354,0-30.863c8.511-8.51,22.356-8.51,30.867,0
					c8.511,8.509,8.511,22.353,0,30.863C546.196,119.818,532.351,119.818,523.84,111.309z M554.453,80.699
					c-8.384-8.383-21.976-8.383-30.359,0c-8.384,8.382-8.384,21.972,0,30.355c8.384,8.383,21.976,8.383,30.359,0
					C562.837,102.671,562.794,89.04,554.453,80.699z"/>
			</g>
		</g>
	</g>
	<path fill="#000005" d="M560.466,74.645c-11.687-11.685-30.698-11.685-42.385,0c-11.687,11.685-11.687,30.694,0,42.38
		c11.687,11.685,30.698,11.685,42.385,0C572.152,105.339,572.152,86.372,560.466,74.645z M536.584,98.521
		c-1.481-1.48-1.481-3.851,0-5.333c1.482-1.481,3.854-1.481,5.336,0c1.482,1.482,1.482,3.853,0,5.333
		C540.48,100.004,538.066,100.004,536.584,98.521z"/>
	<path fill="#F26522" d="M553.648,81.46c-7.96-7.959-20.832-7.959-28.793,0c-7.96,7.96-7.96,20.83,0,28.789
		c7.961,7.96,20.833,7.96,28.793,0C561.608,102.29,561.608,89.42,553.648,81.46z M536.712,98.395c-1.397-1.396-1.397-3.683,0-5.122
		c1.397-1.397,3.685-1.397,5.123,0c1.397,1.397,1.397,3.683,0,5.122C540.396,99.835,538.109,99.835,536.712,98.395z"/>
</g>
<g>
	<path d="M0,302.826v-97.031h57.393c9.55,0,16.772,2.037,21.665,6.108c4.892,4.073,7.339,10.094,7.339,18.062
		c0,3.867-0.762,7.325-2.285,10.371c-1.524,3.047-3.691,5.508-6.504,7.383c5.155,2.988,9.053,6.65,11.689,10.986
		c2.637,4.337,3.955,9.316,3.955,14.941c0,8.965-2.944,16.07-8.833,21.313c-5.889,5.245-13.873,7.866-23.95,7.866H0z
		 M12.041,244.115h46.406c5.098,0,8.994-1.156,11.689-3.472c2.694-2.313,4.043-5.639,4.043-9.976c0-4.57-1.305-7.998-3.911-10.283
		c-2.608-2.285-6.548-3.428-11.821-3.428H12.041V244.115z M12.041,291.664h50.801c5.507,0,9.844-1.626,13.008-4.878
		s4.746-7.69,4.746-13.315c0-5.566-1.582-9.989-4.746-13.271c-3.164-3.281-7.501-4.922-13.008-4.922H12.041V291.664z"/>
	<path d="M115.84,302.826v-75.234h11.953v75.234H115.84z"/>
	<path d="M204.609,273.646v-10.811h30.938v22.676c-4.337,6.446-9.991,11.338-16.963,14.678c-6.974,3.34-15.06,5.01-24.258,5.01
		c-13.829,0-25.137-3.735-33.926-11.206s-13.184-16.948-13.184-28.433c0-11.483,4.423-20.99,13.271-28.521
		c8.847-7.528,20.127-11.294,33.838-11.294c8.671,0,16.361,1.494,23.071,4.482c6.708,2.988,12.29,7.383,16.743,13.184l-9.053,6.504
		c-3.164-4.16-7.457-7.427-12.876-9.8c-5.42-2.373-11.382-3.56-17.886-3.56c-10.254,0-18.663,2.725-25.225,8.174
		c-6.563,5.449-9.844,12.335-9.844,20.654c0,8.32,3.266,15.205,9.8,20.654c6.533,5.449,14.955,8.174,25.269,8.174
		c6.445,0,12.406-1.172,17.886-3.516c5.478-2.343,9.301-5.331,11.47-8.965v-8.086H204.609z"/>
	<path d="M258.838,302.826v-97.031h57.393c9.55,0,16.772,2.037,21.665,6.108c4.892,4.073,7.339,10.094,7.339,18.062
		c0,3.867-0.762,7.325-2.285,10.371c-1.524,3.047-3.691,5.508-6.504,7.383c5.155,2.988,9.053,6.65,11.689,10.986
		c2.637,4.337,3.955,9.316,3.955,14.941c0,8.965-2.944,16.07-8.833,21.313c-5.889,5.245-13.873,7.866-23.95,7.866H258.838z
		 M270.879,244.115h46.406c5.098,0,8.994-1.156,11.689-3.472c2.694-2.313,4.043-5.639,4.043-9.976c0-4.57-1.305-7.998-3.911-10.283
		c-2.608-2.285-6.548-3.428-11.821-3.428h-46.406V244.115z M270.879,291.664h50.801c5.507,0,9.844-1.626,13.008-4.878
		s4.746-7.69,4.746-13.315c0-5.566-1.582-9.989-4.746-13.271c-3.164-3.281-7.501-4.922-13.008-4.922h-50.801V291.664z"/>
	<path d="M413.965,305.199c-13.359,0-24.346-3.779-32.959-11.338s-12.92-17.051-12.92-28.477c0-11.483,4.292-20.962,12.876-28.433
		c8.583-7.471,19.585-11.206,33.003-11.206c13.535,0,24.595,3.722,33.179,11.162c8.583,7.441,12.876,16.934,12.876,28.477
		c0,11.484-4.307,20.992-12.92,28.521C438.486,301.436,427.441,305.199,413.965,305.199z M413.965,294.213
		c10.02,0,18.193-2.709,24.521-8.13c6.328-5.419,9.492-12.318,9.492-20.698c0-8.319-3.179-15.205-9.536-20.654
		c-6.358-5.449-14.517-8.174-24.478-8.174c-9.962,0-18.092,2.711-24.39,8.13c-6.299,5.421-9.448,12.319-9.448,20.698
		c0,8.38,3.149,15.279,9.448,20.698C395.873,291.504,404.003,294.213,413.965,294.213z"/>
	<path d="M491.045,270.043v32.783h-11.777v-75.059h54.58c7.734,0,13.755,1.832,18.062,5.493c4.307,3.663,6.46,8.804,6.46,15.425
		c0,6.271-2.14,11.396-6.416,15.381c-4.277,3.985-9.902,5.977-16.875,5.977H491.045z M491.045,259.057h42.803
		c3.984,0,7.045-0.879,9.185-2.637c2.139-1.758,3.208-4.276,3.208-7.559c0-3.222-1.025-5.713-3.076-7.471
		c-2.052-1.758-4.98-2.637-8.789-2.637h-43.33V259.057z"/>
	<path d="M586.846,270.043v32.783h-11.777v-75.059h54.58c7.734,0,13.755,1.832,18.062,5.493c4.307,3.663,6.46,8.804,6.46,15.425
		c0,6.271-2.14,11.396-6.416,15.381c-4.277,3.985-9.902,5.977-16.875,5.977H586.846z M586.846,259.057h42.803
		c3.984,0,7.045-0.879,9.185-2.637c2.139-1.758,3.208-4.276,3.208-7.559c0-3.222-1.025-5.713-3.076-7.471
		c-2.052-1.758-4.98-2.637-8.789-2.637h-43.33V259.057z"/>
	<path d="M646.523,302.826l38.145-75.059h7.383l38.496,75.059h-12.568l-9.756-19.072h-39.639l-9.668,19.072H646.523z
		 M673.682,273.822h29.355l-14.59-28.74L673.682,273.822z"/>
</g>
</svg>
